10001,Jennifer Lynne,50.00,40.0
10234,Charlie Lynne,27.00,15.5
15611,Jason Daniel,60.00,40.0
23115,Kristin Daniel,47.00,36.0
23116,Hannah Daniel,9.60,20.0
23117,Abigail Daniel,10.00,15.0
23395,Heidi Daniel,8.75,6.0
